{
  "page": 1,
  "per_page": 10,
  "total": 15,
  "total_pages": 2,
  "data": [
    {
      "Title": "Inception",
      "Year": 2010,
      "Rated": "PG-13",
      "Released": "2010-07-16",
      "Runtime": "148 min",
      "Genre": "Action, Adventure, Sci-Fi",
      "Director": "Christopher Nolan",
      "Writer": "Christopher Nolan",
      "Actors": "Leonardo DiCaprio, Joseph Gordon-Levitt, Ellen Page"
    },
    {
      "Title": "The Social Network",
      "Year": 2010,
      "Rated": "PG-13",
      "Released": "2010-10-01",
      "Runtime": "120 min",
      "Genre": "Biography, Drama",
      "Director": "David Fincher",
      "Writer": "Aaron Sorkin, Ben Mezrich",
      "Actors": "Jesse Eisenberg, Andrew Garfield, Justin Timberlake"
    },
    {
      "Title": "The Avengers",
      "Year": 2012,
      "Rated": "PG-13",
      "Released": "2012-05-04",
      "Runtime": "143 min",
      "Genre": "Action, Adventure, Sci-Fi",
      "Director": "Joss Whedon",
      "Writer": "Joss Whedon, Zak Penn",
      "Actors": "Robert Downey Jr., Chris Evans, Scarlett Johansson"
    },
    {
      "Title": "Interstellar",
      "Rated": "PG-13",
      "Released": "2014-11-07",
      "Runtime": "169 min",
      "Genre": "Adventure, Drama, Sci-Fi",
      "Director": "Christopher Nolan",
      "Writer": "Jonathan Nolan, Christopher Nolan",
      "Actors": "Matthew McConaughey, Anne Hathaway, Jessica Chastain"
    },
    {
      "Title": "Mad Max: Fury Road",
      "Year": 2015,
      "Rated": "R",
      "Released": "2015-05-15",
      "Runtime": "120 min",
      "Genre": "Action, Adventure, Sci-Fi",
      "Director": "George Miller",
      "Writer": "George Miller, Brendan McCarthy, Nick Lathouris",
      "Actors": "Tom Hardy, Charlize Theron, Nicholas Hoult"
    },
    {
      "Title": "La La Land",
      "Year": 2016,
      "Rated": "PG-13",
      "Released": "2016-12-09",
      "Runtime": "128 min",
      "Genre": "Comedy, Drama, Music",
      "Director": "Damien Chazelle",
      "Writer": "Damien Chazelle",
      "Actors": "Ryan Gosling, Emma Stone, Rosemarie DeWitt"
    },
    {
      "Title": "Get Out",
      "Year": 2017,
      "Rated": "R",
      "Released": "2017-02-24",
      "Runtime": "104 min",
      "Genre": "Horror, Mystery, Thriller",
      "Director": "Jordan Peele",
      "Writer": "Jordan Peele",
      "Actors": "Daniel Kaluuya, Allison Williams, Bradley Whitford"
    },
    {
      "Title": "Black Panther",
      "Year": 2018,
      "Rated": "PG-13",
      "Released": "2018-02-16",
      "Runtime": "134 min",
      "Genre": "Action, Adventure, Sci-Fi",
      "Director": "Ryan Coogler",
      "Writer": "Ryan Coogler, Joe Robert Cole",
      "Actors": "Chadwick Boseman, Michael B. Jordan, Lupita Nyong'o"
    },
    {
      "Title": "Parasite",
      "Year": 2019,
      "Rated": "R",
      "Released": "2019-11-08",
      "Runtime": "132 min",
      "Genre": "Comedy, Drama, Thriller",
      "Director": "Bong Joon Ho",
      "Writer": "Bong Joon Ho, Han Jin-won",
      "Actors": "Kang-ho Song, Sun-kyun Lee, Yeo-jeong Jo"
    },
    {
      "Title": "Tenet",
      "Year": 2020,
      "Rated": "PG-13",
      "Released": "2020-09-03",
      "Runtime": "150 min",
      "Genre": "Action, Sci-Fi, Thriller",
      "Director": "Christopher Nolan",
      "Writer": "Christopher Nolan",
      "Actors": "John David Washington, Robert Pattinson, Elizabeth Debicki"
    }
  ]
}